Exemple d'équation différentielle stochastique | Pierre Gloaguen
…
Comme on veut 10 simulations par jeu de paramètres, il suffit de répéter 10 fois ce code
grâce à rerun et d’aggéger les résultats dans un tibble.

set.seed(123) # For reproducibility
all_simulations <- rerun(10, # rerun 10 times
                         pmap_dfr(.l = parameters_list, # Same code as above
                                  .f = simulate_double_peak_sde, 
                                  times = my_times)
                         ) %>% # Then
  bind_rows(.id = "Replicate") # Binds it a tibble, keeping track of replicate

Le résultat est un tibble de taille conséquente!

# A tibble: 180,120 x 6
   Replicate     t   x_t    x0 alpha sigma
   <chr>     <dbl> <dbl> <dbl> <dbl> <dbl>
 1 1          0    -2       -2     1   0.1
 2 1          0.01 -1.95    -2     1   0.1
 3 1          0.02 -1.90    -2     1   0.1
 4 1          0.03 -1.82    -2     1   0.1
 5 1          0.04 -1.78    -2     1   0.1
 6 1          0.05 -1.73    -2     1   0.1
 7 1          0.06 -1.67    -2     1   0.1
 8 1          0.07 -1.63    -2     1   0.1
 9 1          0.08 -1.62    -2     1   0.1
10 1          0.09 -1.61    -2     1   0.1
# … with 180,110 more rows
…
